0,7,23310,162
7,0,23310,162
0,13,96030,980
13,0,96030,980
0,14,49680,526
14,0,49680,526
0,18,48600,514
18,0,48600,514
1,25,122670,1038
25,1,122670,1038
1,30,71460,477
30,1,71460,477
1,35,135000,1099
35,1,135000,1099
2,20,68400,598
20,2,68400,598
2,21,45720,373
21,2,45720,373
2,29,111960,908
29,2,111960,908
3,8,42660,302
8,3,42660,302
3,30,43830,351
30,3,43830,351
3,35,49590,459
35,3,49590,459
4,9,48600,331
9,4,48600,331
4,14,34290,353
14,4,34290,353
4,23,68130,476
23,4,68130,476
4,27,37800,265
27,4,37800,265
4,34,69750,760
34,4,69750,760
5,13,54900,413
13,5,54900,413
5,18,21510,197
18,5,21510,197
6,20,75060,544
20,6,75060,544
6,21,68040,614
21,6,68040,614
6,26,67230,496
26,6,67230,496
7,11,23760,246
11,7,23760,246
7,26,35370,281
26,7,35370,281
8,16,39240,269
16,8,39240,269
8,27,60120,532
27,8,60120,532
9,24,64980,459
24,9,64980,459
9,31,69930,656
31,9,69930,656
10,13,41580,322
13,10,41580,322
10,18,62100,635
18,10,62100,635
11,12,24750,220
12,11,24750,220
12,14,53280,370
14,12,53280,370
12,23,41040,351
23,12,41040,351
12,32,24390,177
32,12,24390,177
15,24,106380,1422
24,15,106380,1422
15,31,53730,697
31,15,53730,697
15,34,123300,886
34,15,123300,886
16,34,34470,244
34,16,34470,244
17,18,177930,1560
18,17,177930,1560
17,20,67590,567
20,17,67590,567
17,29,42390,343
29,17,42390,343
18,26,46260,363
26,18,46260,363
19,21,36990,249
21,19,36990,249
19,26,53460,401
26,19,53460,401
19,36,45630,407
36,19,45630,407
21,28,81630,727
28,21,81630,727
22,23,46980,358
23,22,46980,358
22,28,64800,490
28,22,64800,490
22,36,29430,201
36,22,29430,201
23,33,48060,480
33,23,48060,480
25,28,57420,385
28,25,57420,385
26,32,54000,545
32,26,54000,545
27,33,33840,269
33,27,33840,269
28,35,70470,529
35,28,70470,529
32,36,19620,143
36,32,19620,143
33,35,36000,242
35,33,36000,242
7,0,23310,162
0,7,23310,162
13,0,96030,980
0,13,96030,980
14,0,49680,526
0,14,49680,526
18,0,48600,514
0,18,48600,514
25,1,122670,1038
1,25,122670,1038
30,1,71460,477
1,30,71460,477
35,1,135000,1099
1,35,135000,1099
20,2,68400,598
2,20,68400,598
21,2,45720,373
2,21,45720,373
29,2,111960,908
2,29,111960,908
8,3,42660,302
3,8,42660,302
30,3,43830,351
3,30,43830,351
35,3,49590,459
3,35,49590,459
9,4,48600,331
4,9,48600,331
14,4,34290,353
4,14,34290,353
23,4,68130,476
4,23,68130,476
27,4,37800,265
4,27,37800,265
34,4,69750,760
4,34,69750,760
13,5,54900,413
5,13,54900,413
18,5,21510,197
5,18,21510,197
20,6,75060,544
6,20,75060,544
21,6,68040,614
6,21,68040,614
26,6,67230,496
6,26,67230,496
11,7,23760,246
7,11,23760,246
26,7,35370,281
7,26,35370,281
16,8,39240,269
8,16,39240,269
27,8,60120,532
8,27,60120,532
24,9,64980,459
9,24,64980,459
31,9,69930,656
9,31,69930,656
13,10,41580,322
10,13,41580,322
18,10,62100,635
10,18,62100,635
12,11,24750,220
11,12,24750,220
14,12,53280,370
12,14,53280,370
23,12,41040,351
12,23,41040,351
32,12,24390,177
12,32,24390,177
24,15,106380,1422
15,24,106380,1422
31,15,53730,697
15,31,53730,697
34,15,123300,886
15,34,123300,886
34,16,34470,244
16,34,34470,244
18,17,177930,1560
17,18,177930,1560
20,17,67590,567
17,20,67590,567
29,17,42390,343
17,29,42390,343
26,18,46260,363
18,26,46260,363
21,19,36990,249
19,21,36990,249
26,19,53460,401
19,26,53460,401
36,19,45630,407
19,36,45630,407
28,21,81630,727
21,28,81630,727
23,22,46980,358
22,23,46980,358
28,22,64800,490
22,28,64800,490
36,22,29430,201
22,36,29430,201
33,23,48060,480
23,33,48060,480
28,25,57420,385
25,28,57420,385
32,26,54000,545
26,32,54000,545
33,27,33840,269
27,33,33840,269
35,28,70470,529
28,35,70470,529
36,32,19620,143
32,36,19620,143
35,33,36000,242
33,35,36000,242
