12,14,3290,33
14,12,3290,33
10,14,3290,43
14,10,3290,43
48,14,3290,65
14,48,3290,65
29,12,3290,33
12,29,3290,33
0,29,3290,85
29,0,3290,85
28,29,3290,85
29,28,3290,85
35,10,3290,48
10,35,3290,48
44,10,3720,83
10,44,3720,83
25,10,3720,207
10,25,3720,207
48,0,3720,71
0,48,3720,71
46,0,3720,120
0,46,3720,120
4,35,3290,90
35,4,3290,90
39,35,3290,53
35,39,3290,53
44,28,3290,72
28,44,3290,72
16,28,3720,122
28,16,3720,122
23,28,3720,100
28,23,3720,100
46,28,3720,106
28,46,3720,106
4,44,3720,122
44,4,3720,122
19,44,3290,72
44,19,3290,72
38,48,4150,252
48,38,4150,252
36,48,4150,236
48,36,4150,236
31,3,3720,155
3,31,3720,155
11,3,4150,153
3,11,4150,153
43,3,4150,220
3,43,4150,220
32,3,3720,179
3,32,3720,179
20,3,4150,157
3,20,4150,157
11,31,3720,139
31,11,3720,139
13,31,3720,139
31,13,3720,139
32,31,3720,109
31,32,3720,109
2,31,4150,162
31,2,4150,162
13,11,4150,269
11,13,4150,269
8,11,3290,82
11,8,3290,82
8,13,3720,190
13,8,3720,190
25,13,3720,157
13,25,3720,157
49,13,3720,161
13,49,3720,161
2,8,3720,162
8,2,3720,162
32,43,4150,142
43,32,4150,142
20,43,3720,202
43,20,3720,202
21,43,3720,146
43,21,3720,146
27,43,3720,155
43,27,3720,155
5,32,3290,110
32,5,3290,110
27,21,3720,78
21,27,3720,78
22,21,3720,122
21,22,3720,122
5,21,3720,141
21,5,3720,141
38,6,3290,64
6,38,3290,64
7,6,3290,51
6,7,3290,51
22,6,3290,114
6,22,3290,114
15,27,3290,80
27,15,3290,80
36,38,3720,111
38,36,3720,111
39,38,3720,85
38,39,3720,85
7,15,3720,151
15,7,3720,151
4,22,3720,127
22,4,3720,127
5,22,3720,84
22,5,3720,84
39,22,3720,169
22,39,3720,169
5,4,3720,206
4,5,3720,206
25,5,3720,142
5,25,3720,142
19,25,3720,113
25,19,3720,113
18,25,3720,78
25,18,3720,78
9,16,3290,24
16,9,3290,24
19,16,3290,45
16,19,3290,45
18,16,3720,107
16,18,3720,107
33,9,3290,43
9,33,3290,43
23,9,3720,101
9,23,3720,101
24,33,3290,49
33,24,3290,49
42,23,3290,75
23,42,3290,75
24,23,3290,78
23,24,3290,78
18,19,3290,102
19,18,3290,102
42,46,3290,63
46,42,3290,63
49,18,3720,83
18,49,3720,83
24,42,3720,140
42,24,3720,140
24,45,3290,74
45,24,3290,74
47,45,3290,95
45,47,3290,95
30,45,3720,108
45,30,3720,108
49,45,3720,136
45,49,3720,136
17,24,3720,120
24,17,3720,120
1,47,3290,91
47,1,3290,91
17,30,3720,142
30,17,3720,142
26,30,3720,114
30,26,3720,114
1,34,3290,69
34,1,3290,69
26,34,3720,132
34,26,3720,132
40,34,3720,194
34,40,3720,194
37,34,3720,152
34,37,3720,152
41,34,3720,100
34,41,3720,100
49,1,4150,172
1,49,4150,172
41,40,3720,144
40,41,3720,144
2,37,3290,67
37,2,3290,67
49,37,3720,108
37,49,3720,108
41,37,3720,120
37,41,3720,120
14,12,3290,33
12,14,3290,33
14,10,3290,43
10,14,3290,43
14,48,3290,65
48,14,3290,65
12,29,3290,33
29,12,3290,33
29,0,3290,85
0,29,3290,85
29,28,3290,85
28,29,3290,85
10,35,3290,48
35,10,3290,48
10,44,3720,83
44,10,3720,83
10,25,3720,207
25,10,3720,207
0,48,3720,71
48,0,3720,71
0,46,3720,120
46,0,3720,120
35,4,3290,90
4,35,3290,90
35,39,3290,53
39,35,3290,53
28,44,3290,72
44,28,3290,72
28,16,3720,122
16,28,3720,122
28,23,3720,100
23,28,3720,100
28,46,3720,106
46,28,3720,106
44,4,3720,122
4,44,3720,122
44,19,3290,72
19,44,3290,72
48,38,4150,252
38,48,4150,252
48,36,4150,236
36,48,4150,236
3,31,3720,155
31,3,3720,155
3,11,4150,153
11,3,4150,153
3,43,4150,220
43,3,4150,220
3,32,3720,179
32,3,3720,179
3,20,4150,157
20,3,4150,157
31,11,3720,139
11,31,3720,139
31,13,3720,139
13,31,3720,139
31,32,3720,109
32,31,3720,109
31,2,4150,162
2,31,4150,162
11,13,4150,269
13,11,4150,269
11,8,3290,82
8,11,3290,82
13,8,3720,190
8,13,3720,190
13,25,3720,157
25,13,3720,157
13,49,3720,161
49,13,3720,161
8,2,3720,162
2,8,3720,162
43,32,4150,142
32,43,4150,142
43,20,3720,202
20,43,3720,202
43,21,3720,146
21,43,3720,146
43,27,3720,155
27,43,3720,155
32,5,3290,110
5,32,3290,110
21,27,3720,78
27,21,3720,78
21,22,3720,122
22,21,3720,122
21,5,3720,141
5,21,3720,141
6,38,3290,64
38,6,3290,64
6,7,3290,51
7,6,3290,51
6,22,3290,114
22,6,3290,114
27,15,3290,80
15,27,3290,80
38,36,3720,111
36,38,3720,111
38,39,3720,85
39,38,3720,85
15,7,3720,151
7,15,3720,151
22,4,3720,127
4,22,3720,127
22,5,3720,84
5,22,3720,84
22,39,3720,169
39,22,3720,169
4,5,3720,206
5,4,3720,206
5,25,3720,142
25,5,3720,142
25,19,3720,113
19,25,3720,113
25,18,3720,78
18,25,3720,78
16,9,3290,24
9,16,3290,24
16,19,3290,45
19,16,3290,45
16,18,3720,107
18,16,3720,107
9,33,3290,43
33,9,3290,43
9,23,3720,101
23,9,3720,101
33,24,3290,49
24,33,3290,49
23,42,3290,75
42,23,3290,75
23,24,3290,78
24,23,3290,78
19,18,3290,102
18,19,3290,102
46,42,3290,63
42,46,3290,63
18,49,3720,83
49,18,3720,83
42,24,3720,140
24,42,3720,140
45,24,3290,74
24,45,3290,74
45,47,3290,95
47,45,3290,95
45,30,3720,108
30,45,3720,108
45,49,3720,136
49,45,3720,136
24,17,3720,120
17,24,3720,120
47,1,3290,91
1,47,3290,91
30,17,3720,142
17,30,3720,142
30,26,3720,114
26,30,3720,114
34,1,3290,69
1,34,3290,69
34,26,3720,132
26,34,3720,132
34,40,3720,194
40,34,3720,194
34,37,3720,152
37,34,3720,152
34,41,3720,100
41,34,3720,100
1,49,4150,172
49,1,4150,172
40,41,3720,144
41,40,3720,144
37,2,3290,67
2,37,3290,67
37,49,3720,108
49,37,3720,108
37,41,3720,120
41,37,3720,120
