5,7,34949,2863,26|39|104|115|131|134|151|
5,20,29219,2312,26|104|115|131|134|151|
7,5,34949,2863,22|27|33|38|52|130|150|
7,15,41539,3388,13|38|59|70|76|97|145|146|
7,19,28789,2389,22|27|38|52|130|150|
15,7,41539,3345,26|31|39|104|115|131|134|151|
15,20,35809,2794,26|31|104|115|131|134|151|
19,7,28789,2389,26|39|104|131|134|151|
19,20,23059,1838,26|104|131|134|151|
20,5,29219,2312,22|27|33|52|130|150|
20,15,35809,2794,22|27|33|52|113|130|150|
20,19,23059,1838,22|27|52|130|150|
