demand,lambda min,lambda max,
0,184.369,1745.72,
1,184.369,1745.72,
2,184.369,1745.72,
3,102.717,1745.72,
4,547.105,1394.14,
5,60.095,1394.14,
6,184.369,1745.72,
7,60.095,1394.14,
8,184.369,1745.72,
9,547.105,1394.14,
10,547.105,1490.26,
11,547.105,1394.14,
12,547.105,1394.14,
13,60.095,1394.14,
14,547.105,1394.14,
16,547.105,1490.26,
18,184.369,1745.72,
19,547.105,1394.14,
20,547.105,1394.14,
21,60.095,1394.14,
22,102.717,1745.72,
23,60.095,1394.14,
24,60.095,1394.14,
25,60.095,1394.14,
26,60.095,1394.14,
27,60.095,1394.14,
28,60.095,1394.14,
29,60.095,1394.14,
30,60.095,1394.14,
31,547.105,1394.14,
