demand,lambda min,lambda max,
0,0.000100007,0.0565768,
1,0.00010002,0.0504538,
2,0.000100007,0.0565768,
3,0.000100024,0.131017,
6,0.00010002,0.0504538,
8,0.000100007,0.0565768,
9,0.000100007,0.0565768,
