lambdaMinValid,lambdaMinValidCostFluctuation,lambdaMinValidDelayFluctuation,lambdaMidle,lambdaMidleCostFluctuation,lambdaMidleDelayFluctuation,lambdaMaxValid,lambdaMaxValidCostFluctuation,lambdaMaxValidDelayFluctuation,
10.2383,429,-1,10.9231,429,5.00001,11.608,429,5.00001,
38.256,2429,28,41.3723,2429,28,44.4885,2429,28,
52.0002,3289,54,60.7567,3289,54,69.5132,3289,54,
70.0002,2859,46,72.3504,2859,46,74.7006,2859,46,
220,2859,-1,284.566,2859,12,349.132,2859,12,
413.334,6149,-1,748.327,2429,8,1083.32,2429,8,
