lambdaMinValid,lambdaMinValidCostFluctuation,lambdaMinValidDelayFluctuation,lambdaMidle,lambdaMidleCostFluctuation,lambdaMidleDelayFluctuation,lambdaMaxValid,lambdaMaxValidCostFluctuation,lambdaMaxValidDelayFluctuation,
0.000346149,1,6842,0.000363691,1,6842,0.000381232,1,6842,
0.00102774,7,4087,0.00103383,7,4087,0.00103993,7,4087,
0.00161445,8,4876,0.00159087,8,4876,0.00156728,8,4876,
0.00161445,8,4948,0.00159087,8,4948,0.00156728,8,4948,
0.00161445,8,4948,0.00159087,8,4948,0.00156728,8,4948,
0.00161445,8,4948,0.00159087,8,4948,0.00156728,8,4948,
0.00161445,8,4948,0.00159087,8,4948,0.00156728,8,4948,
0.00161445,8,4948,0.00159087,8,4948,0.00156728,8,4948,
0.00178445,11,2582,0.00206456,11,2582,0.00234467,11,2582,
0.00820991,13,1622,0.0101899,13,1622,0.0121699,13,1622,
