demand,lambda min,lambda max,
4,0.202632,0.333322,
5,0.202632,0.333322,
10,0.202632,0.333322,
11,0.202632,0.333322,
13,0.202632,0.333322,
14,0.202632,0.333322,
18,0.202632,0.333322,
19,0.202632,0.333322,
