lambdaMinValid,lambdaMinValidCostFluctuation,lambdaMinValidDelayFluctuation,lambdaMidle,lambdaMidleCostFluctuation,lambdaMidleDelayFluctuation,lambdaMaxValid,lambdaMaxValidCostFluctuation,lambdaMaxValidDelayFluctuation,
0.469161,2719,3998,0.531628,2719,3998,0.594094,2719,3998,
1.41509,18909,1356,1.48161,18909,1356,1.54814,18909,1356,
6.0625,9789,897.998,8.19772,9789,897.998,10.3329,9789,897.998,
