lambdaMinValid,lambdaMinValidCostFluctuation,lambdaMinValidDelayFluctuation,lambdaMidle,lambdaMidleCostFluctuation,lambdaMidleDelayFluctuation,lambdaMaxValid,lambdaMaxValidCostFluctuation,lambdaMaxValidDelayFluctuation,
4.77488,29486,13574,6.56763,29486,13574,8.36038,29486,13574,
27.0259,88447,1090,36.7906,88447,1090,46.5553,88447,1090,
126.902,132678,2090,153.552,132678,2090,180.202,132678,2090,
