demand,lambda min,lambda max,
0,722.511,729.17,
1,309.346,1180.13,
2,84.8913,1180.13,
3,26.862,1180.13,
4,18.6211,1180.13,
5,309.346,1180.13,
6,0.000116455,484.926,
7,84.8913,1180.13,
8,18.6211,1180.13,
9,0.000116455,484.926,
10,786.521,1384.62,
11,31.9227,454.617,
12,786.521,1384.62,
13,207.731,296.183,
14,84.8913,296.183,
15,136.115,1863.95,
16,207.731,296.183,
17,84.8913,296.183,
21,3.22467,1863.95,
22,3.22467,1863.95,
24,3.22467,1863.95,
25,1753.98,1863.95,
26,3.22467,1863.95,
27,3.22467,1863.95,
28,3.22467,1863.95,
30,18.6211,32.5655,
31,26.862,987.753,
32,68.0983,987.753,
33,18.6211,1180.13,
34,18.6211,1180.13,
35,18.3812,291.361,
36,18.6211,32.5655,
37,18.6211,1180.13,
38,18.6211,1180.13,
39,18.6211,1180.13,
40,26.862,987.753,
41,18.6211,1180.13,
42,18.6211,32.5655,
44,18.6211,257.761,
45,68.0983,987.753,
46,68.0983,987.753,
47,68.0983,987.753,
48,18.6211,91.9519,
49,23.7351,296.183,
50,18.6211,32.5655,
51,32.672,729.17,
52,32.672,296.183,
53,32.672,296.183,
54,0.000116455,164.814,
55,18.6211,32.5655,
56,18.6211,32.5655,
57,0.000116455,164.814,
58,32.672,296.183,
59,32.672,729.17,
60,0.000116455,54.3548,
61,0.000116455,164.814,
63,32.672,296.183,
64,18.6211,32.5655,
65,0.000116455,164.814,
67,32.672,729.17,
68,722.511,729.17,
69,32.672,729.17,
70,1.51452,729.17,
71,45.6404,136.778,
72,45.6404,136.778,
73,495.257,1863.95,
74,34.4169,173.315,
75,251.226,729.17,
76,26.862,199.629,
77,253.437,960.999,
79,495.257,1863.95,
80,7.2873,3005.97,
81,7.2873,296.183,
82,84.8913,296.183,
83,7.2873,296.183,
84,7.2873,3005.97,
85,84.8913,296.183,
86,786.521,1384.62,
87,31.9227,454.617,
88,1.51452,296.127,
89,3.90329,245.069,
90,786.521,1384.62,
91,24.6491,296.127,
94,786.521,1384.62,
95,207.731,296.183,
97,32.672,296.183,
98,786.521,1384.62,
99,309.346,1180.13,
100,32.672,296.183,
101,62.7122,1863.95,
102,28.2211,296.183,
103,7.2873,296.183,
104,1.51452,1180.13,
108,207.731,1180.13,
109,207.731,296.183,
110,207.731,296.183,
111,3.90329,1180.13,
112,28.2211,296.183,
113,62.7122,1863.95,
114,207.731,1180.13,
115,786.521,1384.62,
116,28.2211,296.183,
117,612.178,1180.13,
118,32.672,296.183,
119,62.7122,1863.95,
120,786.521,1384.62,
121,207.731,296.183,
122,13.6246,60.6782,
123,207.731,296.183,
124,786.521,1384.62,
125,62.7122,1863.95,
126,62.7122,1863.95,
127,118.538,296.183,
129,26.862,62.1769,
130,121.411,296.183,
131,26.862,296.183,
132,62.7122,1863.95,
133,118.774,1180.13,
134,84.8913,1180.13,
135,31.9227,454.617,
136,84.8913,296.183,
137,68.0983,987.753,
138,23.7351,296.183,
139,32.672,296.183,
140,84.8913,296.183,
141,31.9227,454.617,
142,84.8913,1180.13,
143,84.8913,1180.13,
144,32.672,296.183,
145,23.7351,3840.74,
146,3.22467,1863.95,
147,84.8913,296.183,
148,84.8913,296.183,
149,84.8913,1180.13,
150,84.8913,1180.13,
151,84.8913,1180.13,
152,84.8913,296.183,
153,84.8913,296.183,
154,84.8913,1180.13,
155,84.8913,1180.13,
156,84.8913,296.183,
157,3.22467,1863.95,
158,84.8913,1180.13,
159,31.9227,454.617,
160,84.8913,296.183,
161,54.8917,1180.13,
162,32.672,296.183,
163,84.8913,1180.13,
164,84.8913,1180.13,
165,3.22467,1863.95,
166,31.9227,454.617,
167,84.8913,296.183,
168,3.22467,84.1766,
169,84.8913,296.183,
170,84.8913,1180.13,
171,31.9227,454.617,
172,3.22467,1863.95,
173,3.22467,1863.95,
174,84.8913,296.183,
175,2.20917,84.1766,
176,84.8913,296.183,
177,84.8913,296.183,
178,3.22467,1863.95,
179,84.8913,1180.13,
180,18.6211,1180.13,
181,309.346,1180.13,
182,84.8913,1180.13,
183,26.862,1180.13,
184,18.6211,1180.13,
185,309.346,1180.13,
186,25.9401,339.096,
187,722.511,729.17,
188,18.6211,1180.13,
189,94.2171,339.096,
190,84.8913,1180.13,
191,0.000116455,484.926,
192,18.6211,1180.13,
193,722.511,729.17,
194,309.346,1180.13,
195,84.8913,1180.13,
197,26.862,1180.13,
198,0.000116455,484.926,
199,26.862,1180.13,
200,18.6211,2438.43,
201,18.6211,1180.13,
202,0.000116455,484.926,
203,309.346,1180.13,
204,0.000116455,484.926,
205,722.511,729.17,
206,18.6211,1180.13,
207,0.000116455,484.926,
208,0.000116455,484.926,
209,0.000116455,484.926,
210,305.224,1180.13,
211,305.224,1180.13,
212,84.8913,1180.13,
213,18.6211,1180.13,
214,0.000116455,484.926,
215,18.3812,291.361,
217,11.724,291.361,
218,300.105,1863.95,
219,11.724,291.361,
220,31.8296,1863.95,
221,300.105,1863.95,
222,21.7674,291.361,
223,300.105,1863.95,
225,32.672,729.17,
226,32.672,296.183,
227,32.672,296.183,
229,0.000116455,164.814,
230,26.862,32.5655,
231,18.6211,32.5655,
232,18.6211,32.5655,
233,0.000116455,164.814,
234,32.672,296.183,
235,20.9376,363.614,
236,0.000116455,164.814,
237,32.672,729.17,
238,0.000116455,54.3548,
239,0.000116455,164.814,
240,60.3009,1527.14,
241,0.000116455,164.814,
242,0.000116455,164.814,
243,32.672,296.183,
244,18.6211,32.5655,
245,0.000116455,164.814,
246,23.7351,3840.74,
247,26.862,1180.13,
248,26.862,460.023,
249,26.862,1180.13,
250,26.862,1180.13,
251,26.862,1180.13,
252,26.862,460.023,
253,26.862,1180.13,
254,26.862,1180.13,
255,26.862,1180.13,
256,26.862,1180.13,
257,26.862,460.023,
258,26.862,257.761,
259,26.862,1180.13,
260,26.862,460.023,
261,26.862,460.023,
262,26.862,460.023,
263,26.862,1180.13,
264,0.000116455,484.926,
265,3.22467,1863.95,
266,495.257,1863.95,
267,3.22467,1863.95,
268,0.000116455,484.926,
269,0.000116455,484.926,
270,26.862,460.023,
271,26.862,460.023,
272,0.000116455,484.926,
273,0.000116455,484.926,
274,0.000116455,484.926,
275,0.000116455,484.926,
276,0.000116455,484.926,
277,0.000116455,164.814,
278,0.000116455,484.926,
279,0.000116455,484.926,
280,3.22467,1863.95,
281,0.000116455,484.926,
282,151.429,484.926,
283,3.22467,1863.95,
284,3.22467,1863.95,
285,3.22467,1863.95,
286,0.000116455,484.926,
287,0.000116455,484.926,
288,26.862,32.5655,
289,26.862,460.023,
290,26.862,1180.13,
291,26.862,1180.13,
292,26.862,1180.13,
293,26.862,1180.13,
294,26.862,1180.13,
295,26.862,460.023,
296,26.862,1180.13,
297,26.862,32.5655,
298,26.862,1180.13,
299,26.862,1180.13,
300,26.862,460.023,
301,26.862,1180.13,
302,26.862,460.023,
303,26.862,460.023,
304,26.862,460.023,
306,28.2211,296.183,
307,84.8913,296.183,
308,11.724,291.361,
309,28.2211,296.183,
311,84.8913,296.183,
312,7.2873,3005.97,
313,7.2873,296.183,
314,84.8913,296.183,
315,7.2873,296.183,
316,7.2873,3005.97,
317,84.8913,296.183,
318,18.6211,1180.13,
319,207.731,1180.13,
320,84.8913,1180.13,
321,18.6211,1180.13,
322,207.731,1180.13,
323,18.6211,1180.13,
324,0.000116455,484.926,
325,0.000116455,484.926,
326,84.8913,1180.13,
327,18.6211,1180.13,
328,0.000116455,484.926,
329,1.51452,729.17,
330,1.51452,296.127,
331,1.51452,1180.13,
332,84.8913,1180.13,
333,0.000116455,484.926,
334,26.862,1180.13,
336,0.000116455,484.926,
337,1.51452,1180.13,
338,2.85339,25.8729,
339,0.000116455,484.926,
340,1.51452,729.17,
341,1.51452,296.127,
342,18.6211,1180.13,
343,0.000116455,484.926,
344,2.85339,93.3376,
345,0.000116455,484.926,
346,0.000116455,484.926,
347,305.224,1180.13,
348,305.224,1180.13,
349,84.8913,1180.13,
350,18.6211,1180.13,
351,0.000116455,484.926,
352,291.802,984.456,
353,18.6211,32.5655,
354,45.6404,136.778,
355,18.6211,32.5655,
356,18.6211,32.5655,
357,18.6211,257.761,
358,18.6211,91.9519,
359,18.6211,2438.43,
360,18.6211,32.5655,
361,26.862,296.183,
362,84.8913,296.183,
363,18.6211,1180.13,
364,18.6211,1180.13,
365,18.6211,32.5655,
366,18.6211,1180.13,
367,18.6211,1180.13,
368,26.862,296.183,
369,18.6211,1180.13,
370,18.6211,32.5655,
371,18.6211,1180.13,
372,18.6211,257.761,
373,84.8913,296.183,
374,18.6211,91.9519,
375,18.6211,1180.13,
376,136.115,1863.95,
377,45.6404,136.778,
379,87.9476,1863.95,
382,207.731,1180.13,
383,84.8913,1180.13,
384,0.000116455,484.926,
385,26.862,1180.13,
386,18.6211,1180.13,
387,0.000116455,484.926,
388,207.731,1180.13,
389,0.000116455,484.926,
390,251.226,729.17,
391,18.6211,1180.13,
392,0.000116455,484.926,
393,0.000116455,484.926,
394,0.000116455,484.926,
395,0.000116455,484.926,
396,207.731,296.183,
397,207.731,296.183,
398,3.76745,65.7461,
399,84.8913,296.183,
400,207.731,296.183,
401,84.8913,296.183,
402,207.731,296.183,
404,84.8913,296.183,
405,18.6211,1180.13,
406,722.511,729.17,
407,309.346,1180.13,
408,84.8913,1180.13,
409,0.000116455,484.926,
410,26.862,1180.13,
411,18.6211,1180.13,
412,309.346,1180.13,
413,722.511,729.17,
414,0.000116455,484.926,
415,0.000116455,484.926,
416,84.8913,1180.13,
417,0.000116455,484.926,
418,18.6211,1180.13,
419,3.90329,729.17,
420,3.90329,245.069,
421,3.90329,1180.13,
422,84.8913,1180.13,
423,0.000116455,484.926,
424,26.862,1180.13,
426,3.90329,1180.13,
428,0.000116455,484.926,
429,0.000116455,484.926,
431,0.000116455,484.926,
432,18.6211,1180.13,
433,0.000116455,484.926,
434,28.2211,296.183,
435,28.2211,296.183,
436,84.8913,296.183,
438,3.22467,1863.95,
439,0.000116455,164.814,
440,495.257,1863.95,
441,0.000116455,484.926,
442,0.000116455,484.926,
443,300.105,1863.95,
444,0.000116455,164.814,
445,26.862,460.023,
446,26.862,460.023,
447,0.000116455,484.926,
448,87.9476,1863.95,
449,0.000116455,484.926,
450,0.000116455,484.926,
451,0.000116455,164.814,
452,0.000116455,484.926,
453,7.40576,484.926,
454,3.22467,1863.95,
455,0.000116455,484.926,
456,0.000116455,484.926,
457,3.22467,1863.95,
458,3.22467,1863.95,
459,3.22467,1863.95,
460,0.000116455,484.926,
461,786.521,1384.62,
462,207.731,296.183,
464,32.672,296.183,
465,786.521,1384.62,
466,309.346,1180.13,
467,32.672,296.183,
468,62.7122,1863.95,
469,28.2211,296.183,
470,7.2873,296.183,
471,1.51452,1180.13,
475,207.731,1180.13,
476,207.731,296.183,
477,207.731,296.183,
478,3.90329,1180.13,
479,28.2211,296.183,
480,62.7122,1863.95,
481,207.731,1180.13,
482,786.521,1384.62,
483,28.2211,296.183,
484,612.178,1180.13,
485,32.672,296.183,
486,62.7122,1863.95,
487,786.521,1384.62,
488,207.731,296.183,
489,13.6246,60.6782,
490,207.731,296.183,
491,786.521,1384.62,
492,62.7122,1863.95,
493,62.7122,1863.95,
494,118.538,296.183,
496,26.862,62.1769,
497,121.411,296.183,
498,26.862,296.183,
499,62.7122,1863.95,
500,118.774,1180.13,
501,18.6211,1180.13,
502,207.731,1180.13,
503,84.8913,1180.13,
504,26.862,1180.13,
505,0.000116455,484.926,
506,26.862,1180.13,
507,18.6211,1180.13,
508,0.000116455,484.926,
509,207.731,1180.13,
510,0.000116455,484.926,
511,18.6211,1180.13,
512,84.8913,1180.13,
513,18.6211,1180.13,
514,0.000116455,484.926,
515,786.521,1384.62,
516,31.9227,454.617,
517,20.9376,363.614,
518,2.85339,25.8729,
519,3.76745,65.7461,
521,786.521,1384.62,
522,25.9401,874.955,
524,28.2211,296.183,
525,84.8913,296.183,
526,28.2211,296.183,
528,84.8913,296.183,
530,18.6211,1180.13,
531,612.178,1180.13,
532,54.8917,1180.13,
533,26.862,1180.13,
534,18.6211,1180.13,
535,0.000569455,1180.13,
536,612.178,1180.13,
537,18.6211,1180.13,
538,18.6211,1180.13,
539,0.000116455,484.926,
540,18.6211,32.5655,
541,32.672,296.183,
542,32.672,296.183,
543,26.862,32.5655,
544,0.000116455,164.814,
545,18.6211,32.5655,
546,18.6211,32.5655,
547,0.000116455,164.814,
548,32.672,296.183,
549,0.000116455,164.814,
550,32.672,729.17,
551,18.6211,32.5655,
552,0.000116455,54.3548,
553,0.000116455,164.814,
555,0.000116455,164.814,
556,0.000116455,164.814,
557,32.672,296.183,
558,18.6211,32.5655,
559,0.000116455,164.814,
560,18.6211,1180.13,
561,24.6491,729.17,
562,24.6491,296.127,
563,24.6491,1180.13,
564,84.8913,1180.13,
565,26.862,1180.13,
566,0.000116455,484.926,
567,26.862,1180.13,
568,18.6211,2438.43,
569,18.6211,1180.13,
570,24.6491,1180.13,
571,24.6491,296.127,
572,0.000116455,484.926,
573,24.6491,729.17,
574,24.6491,296.127,
575,18.6211,1180.13,
576,0.000116455,484.926,
577,0.000116455,484.926,
578,0.000116455,484.926,
579,305.224,1180.13,
580,305.224,1180.13,
581,84.8913,1180.13,
582,18.6211,1180.13,
583,0.000116455,484.926,
584,1.51452,296.127,
586,24.6491,296.127,
589,26.6298,583.116,
590,18.6211,1180.13,
591,722.511,729.17,
592,309.346,1180.13,
593,84.8913,1180.13,
594,26.862,1180.13,
595,26.862,1180.13,
596,18.6211,1180.13,
597,309.346,1180.13,
598,25.9401,874.955,
599,18.6211,1180.13,
600,94.2171,874.955,
601,0.000116455,484.926,
602,0.000116455,484.926,
603,84.8913,1180.13,
604,18.6211,1180.13,
605,0.000116455,484.926,
606,0.000116455,484.926,
607,3.22467,1863.95,
608,0.000116455,164.814,
609,495.257,1863.95,
610,62.7122,1863.95,
611,3.22467,1863.95,
612,0.000116455,484.926,
613,0.000116455,484.926,
614,0.000116455,164.814,
615,26.862,460.023,
616,26.862,460.023,
617,0.000116455,484.926,
618,0.000116455,484.926,
619,87.9476,1863.95,
620,0.000116455,484.926,
621,0.000116455,484.926,
622,0.000116455,484.926,
623,62.7122,1863.95,
624,0.000116455,484.926,
625,0.000116455,164.814,
626,0.000116455,484.926,
627,0.000116455,484.926,
628,3.22467,1863.95,
629,0.000116455,484.926,
630,3.22467,1863.95,
631,3.22467,1863.95,
632,3.22467,1863.95,
633,0.000116455,484.926,
634,0.000116455,484.926,
635,722.511,729.17,
636,32.672,729.17,
637,722.511,729.17,
638,722.511,729.17,
639,32.672,729.17,
640,7.2873,3005.97,
641,1.51452,729.17,
642,3.90329,729.17,
644,32.672,729.17,
645,24.6491,729.17,
646,722.511,729.17,
648,251.226,729.17,
649,253.437,960.999,
650,121.411,729.17,
651,31.9227,454.617,
653,32.9889,1180.13,
654,7.40576,484.926,
655,7.40576,484.926,
656,7.40576,484.926,
657,1.51452,296.127,
659,34.4169,173.315,
660,18.6211,1180.13,
661,18.6211,1180.13,
662,18.6211,32.5655,
663,18.6211,1180.13,
664,18.6211,1180.13,
665,18.6211,1180.13,
666,18.6211,1180.13,
667,18.6211,1180.13,
668,18.6211,32.5655,
669,18.6211,1180.13,
670,18.6211,1180.13,
672,18.6211,1180.13,
673,18.6211,91.9519,
674,18.6211,1180.13,
676,3.22467,1863.95,
677,3.22467,1863.95,
680,3.22467,1863.95,
681,3.22467,1863.95,
682,3.22467,1863.95,
684,3.22467,1863.95,
685,251.226,729.17,
687,207.731,296.183,
688,84.8913,296.183,
689,0.000116455,484.926,
690,26.862,257.761,
691,18.6211,257.761,
692,18.6211,257.761,
693,0.000116455,484.926,
694,207.731,296.183,
696,0.000116455,484.926,
697,0.000116455,484.926,
698,0.000116455,484.926,
699,84.8913,296.183,
700,18.6211,257.761,
701,0.000116455,484.926,
702,0.000116455,54.3548,
703,26.862,199.629,
704,13.6246,60.6782,
705,3.22467,84.1766,
706,0.000116455,484.926,
707,0.000116455,484.926,
708,0.000116455,54.3548,
709,0.000116455,484.926,
710,0.000116455,484.926,
711,0.000116455,484.926,
713,0.000116455,484.926,
714,13.6246,60.6782,
715,0.000116455,484.926,
716,0.000116455,54.3548,
717,0.000116455,484.926,
718,9.53844,484.926,
719,0.000116455,484.926,
720,0.000116455,484.926,
721,3.22467,84.1766,
722,0.000116455,151.238,
723,0.000116455,484.926,
724,0.000116455,164.814,
725,207.731,296.183,
726,84.8913,296.183,
727,31.8296,1863.95,
728,0.000116455,164.814,
729,207.731,296.183,
730,0.000116455,164.814,
731,1753.98,1863.95,
734,84.8913,296.183,
735,18.6211,1180.13,
736,207.731,1180.13,
737,84.8913,1180.13,
738,26.862,1180.13,
739,18.6211,1180.13,
740,0.000116455,484.926,
741,207.731,1180.13,
742,18.6211,1180.13,
743,0.000116455,484.926,
744,84.8913,1180.13,
745,18.6211,1180.13,
746,0.000116455,484.926,
747,786.521,1384.62,
748,31.9227,454.617,
749,60.3009,1527.14,
750,2.85339,93.3376,
752,786.521,1384.62,
753,94.2171,874.955,
754,151.429,484.926,
755,3.22467,1863.95,
756,495.257,1863.95,
757,62.7122,1863.95,
758,3.22467,1863.95,
759,0.000116455,484.926,
760,300.105,1863.95,
761,0.000116455,164.814,
762,26.862,460.023,
763,26.862,460.023,
764,0.000116455,484.926,
765,0.000116455,484.926,
766,87.9476,1863.95,
767,0.000116455,484.926,
768,0.000116455,484.926,
769,0.000116455,484.926,
770,62.7122,1863.95,
771,0.000116455,484.926,
772,7.40576,484.926,
773,3.22467,1863.95,
774,3.22467,1863.95,
775,3.22467,1863.95,
776,3.22467,1863.95,
777,0.000116455,484.926,
778,0.000116455,484.926,
779,0.000116455,484.926,
780,3.22467,1863.95,
781,0.000116455,164.814,
782,495.257,1863.95,
783,62.7122,1863.95,
784,3.22467,1863.95,
785,0.000116455,484.926,
786,0.000116455,484.926,
787,300.105,1863.95,
788,0.000116455,164.814,
789,26.862,460.023,
790,26.862,460.023,
791,0.000116455,484.926,
792,0.000116455,484.926,
793,87.9476,1863.95,
794,0.000116455,484.926,
795,62.7122,1863.95,
796,0.000116455,484.926,
797,0.000116455,484.926,
798,0.000116455,164.814,
799,0.000116455,484.926,
800,7.40576,484.926,
801,3.22467,1863.95,
802,0.000116455,484.926,
803,151.429,484.926,
804,3.22467,1863.95,
805,3.22467,1863.95,
806,3.22467,1863.95,
807,0.000116455,484.926,
808,0.000116455,484.926,
809,68.0983,987.753,
810,29.1338,296.183,
811,32.672,296.183,
812,305.224,1180.13,
813,32.672,296.183,
814,305.224,1180.13,
815,305.224,1180.13,
816,3.22467,1863.95,
817,305.224,1180.13,
818,305.224,1180.13,
819,32.672,296.183,
820,3.22467,1863.95,
823,3.22467,1863.95,
824,3.22467,1863.95,
825,92.8054,296.183,
826,3.22467,1863.95,
827,305.224,1180.13,
828,118.538,296.183,
829,84.8913,296.183,
830,21.7674,291.361,
831,118.538,296.183,
832,32.9889,1180.13,
833,84.8913,296.183,
834,68.0983,987.753,
835,29.1338,296.183,
836,32.672,296.183,
839,305.224,1180.13,
840,32.672,296.183,
841,3.22467,1863.95,
842,305.224,1180.13,
843,3.22467,1863.95,
845,305.224,1180.13,
846,305.224,1180.13,
847,32.672,296.183,
848,3.22467,1863.95,
851,3.22467,1863.95,
852,3.22467,1863.95,
853,3.22467,1863.95,
854,305.224,1180.13,
855,84.8913,1180.13,
856,84.8913,296.183,
857,84.8913,296.183,
858,29.1338,296.183,
859,32.672,296.183,
860,84.8913,296.183,
861,84.8913,296.183,
862,84.8913,1180.13,
863,32.672,296.183,
864,3.22467,1863.95,
865,84.8913,296.183,
866,84.8913,296.183,
867,84.8913,1180.13,
868,84.8913,1180.13,
869,84.8913,1180.13,
870,84.8913,296.183,
871,84.8913,296.183,
872,84.8913,1180.13,
873,84.8913,1180.13,
874,84.8913,296.183,
875,3.22467,1863.95,
876,84.8913,1180.13,
877,84.8913,296.183,
878,84.8913,296.183,
879,84.8913,1180.13,
880,32.672,296.183,
881,84.8913,1180.13,
882,26.6298,583.116,
883,84.8913,1180.13,
884,3.22467,1863.95,
885,84.8913,296.183,
886,26.6298,37.8917,
887,84.8913,296.183,
888,3.22467,84.1766,
889,84.8913,296.183,
890,84.8913,1180.13,
891,84.8913,296.183,
892,3.22467,1863.95,
893,3.22467,1863.95,
894,84.8913,296.183,
895,2.20917,84.1766,
896,84.8913,296.183,
897,84.8913,296.183,
898,3.22467,1863.95,
899,18.6211,1180.13,
900,18.6211,32.5655,
901,26.862,62.1769,
902,2.20917,84.1766,
903,18.6211,1180.13,
904,18.6211,1180.13,
905,18.6211,32.5655,
906,18.6211,1180.13,
907,18.6211,1180.13,
908,18.6211,1180.13,
909,18.6211,1180.13,
910,26.862,62.1769,
911,18.6211,1180.13,
912,18.6211,1180.13,
913,18.6211,32.5655,
914,18.6211,1180.13,
915,18.6211,257.761,
916,2.20917,84.1766,
917,18.6211,91.9519,
918,18.6211,1180.13,
919,18.6211,91.9519,
920,121.411,729.17,
922,121.411,296.183,
923,84.8913,296.183,
925,18.6211,91.9519,
926,121.411,296.183,
927,25.9401,339.096,
929,121.411,729.17,
930,18.6211,91.9519,
931,0.000116455,151.238,
932,94.2171,339.096,
933,92.8054,296.183,
934,84.8913,296.183,
935,0.000116455,484.926,
936,26.862,296.183,
937,26.862,296.183,
938,84.8913,296.183,
940,0.000116455,484.926,
941,3.22467,1863.95,
942,0.000116455,164.814,
943,495.257,1863.95,
944,62.7122,1863.95,
945,3.22467,1863.95,
946,0.000116455,484.926,
947,0.000116455,484.926,
948,300.105,1863.95,
949,0.000116455,164.814,
950,26.862,460.023,
951,26.862,460.023,
952,0.000116455,484.926,
953,0.000116455,484.926,
954,87.9476,1863.95,
955,0.000116455,484.926,
956,0.000116455,484.926,
957,0.000116455,484.926,
958,62.7122,1863.95,
959,0.000116455,484.926,
960,0.000116455,484.926,
961,0.000116455,484.926,
962,0.000116455,484.926,
963,7.40576,484.926,
964,3.22467,1863.95,
965,0.000116455,484.926,
966,0.000116455,484.926,
967,3.22467,1863.95,
968,3.22467,1863.95,
969,3.22467,1863.95,
970,0.000116455,484.926,
971,0.000116455,484.926,
972,118.774,729.17,
973,118.774,1180.13,
974,84.8913,1180.13,
975,26.862,1180.13,
976,0.000116455,484.926,
977,291.802,984.456,
978,18.6211,1180.13,
979,118.774,1180.13,
980,0.000116455,484.926,
981,118.774,729.17,
982,18.6211,1180.13,
983,0.000116455,484.926,
984,0.000116455,484.926,
985,305.224,1180.13,
986,305.224,1180.13,
987,84.8913,1180.13,
988,18.6211,1180.13,
989,0.000116455,484.926,
