lambda,lambdaMinValid,demands(|)
1.67416,1.51109,4,236,22,407,248,203,243,241,239,79,133,244,159,265,242,132,212,368,6,318,245,214,406,237,240,122,1,137,249,415,3,209,11,12,210,235,234,
2.78179,2.75787,38,441,37,45,140,61,43,36,33,118,310,270,34,39,44,
11.1753,11.0787,17,219,326,332,14,383,382,379,377,376,372,262,221,289,182,170,282,202,384,227,55,418,429,21,434,439,448,416,387,401,257,370,390,392,389,205,220,73,66,59,15,13,7,5,57,291,369,374,391,444,267,268,274,281,156,353,130,169,165,166,290,261,10,217,190,404,413,9,425,153,152,138,323,216,8,94,385,46,172,117,423,280,338,334,386,
77.9469,76.0723,449,271,272,269,273,275,218,277,378,68,276,258,225,197,301,201,178,167,284,283,343,278,250,411,52,254,433,20,388,395,255,400,256,405,198,183,2,231,229,204,78,77,75,232,42,40,35,23,192,191,188,187,186,185,160,158,149,134,80,113,111,108,102,99,88,86,84,83,125,347,366,346,293,295,297,367,298,300,303,306,307,421,349,417,337,330,355,322,408,327,419,360,361,443,445,362,263,359,264,450,266,363,358,356,285,352,351,437,435,364,430,350,154,354,136,131,365,128,348,288,424,181,176,174,48,426,171,168,50,428,54,157,162,402,56,228,27,121,175,147,146,252,173,319,47,412,320,409,321,164,312,311,422,251,259,304,196,286,200,223,279,432,19,91,90,89,92,93,95,96,82,81,101,103,104,324,106,211,325,399,396,105,71,344,0,107,
95.4035,87.61,49,345,427,145,155,148,314,139,25,199,195,76,72,65,64,58,18,398,431,144,129,150,375,403,151,87,143,142,127,120,442,141,
151.001,146.09,213,331,215,70,74,222,69,180,342,340,341,60,226,447,394,63,62,393,67,230,193,208,161,112,110,109,315,333,329,328,
212.356,155.646,184,163,135,313,
236.927,216.964,246,238,357,41,
998.079,469.927,438,294,299,302,287,308,309,179,410,53,
